Adder/sim/transcript
# //  Questa Sim-64
# //  Version 10.7c linux_x86_64 Aug 17 2018
# //
# //  Copyright 1991-2018 Mentor Graphics Corporation
# //  All Rights Reserved.
# //
# //  QuestaSim and its associated documentation contain trade
# //  secrets and commercial or financial information that are the property of
# //  Mentor Graphics Corporation and are privileged, confidential,
# //  and exempt from disclosure under the Freedom of Information Act,
# //  5 U.S.C. Section 552. Furthermore, this information
# //  is prohibited from disclosure under the Trade Secrets Act,
# //  18 U.S.C. Section 1905.
# //
# vsim top 
# Start time: 18:22:05 on Mar 02,2021
# ** Note: (vsim-3813) Design is being optimized due to module recompilation...
# ** Warning: ../tb/monitor.sv(49): (vopt-2240) Treating stand-alone use of function 'begin_tr' as an implicit VOID cast.
# ** Warning: ../tb/monitor_out.sv(48): (vopt-2240) Treating stand-alone use of function 'begin_tr' as an implicit VOID cast.
# Loading sv_std.std
# Loading mtiUvm.uvm_pkg
# Loading work.top_sv_unit(fast)
# Loading work.top(fast)
# Loading work.DUT(fast)
# Loading mtiUvm.questa_uvm_pkg(fast)
# Loading work.dut_if(fast)
# ** Warning: (vsim-3838) Variable '/top/out/data' written by continuous and procedural assignments. 
# One of the assignments is implicit. See ../src/DUT.sv(9).
#    Time: 0 ns  Iteration: 0  Instance: /top/sum File: ../src/DUT.sv Line: 3
# ** Warning: (vsim-3764) Stand-alone call to function 'begin_tr' treated as implicit void cast.
#    Time: 0 ns  Iteration: 0  Region: /top_sv_unit::driver File: ../tb/driver.sv Line: 67
# Loading /software/mentor/questa10.7c/questasim/uvm-1.1d/linux_x86_64/uvm_dpi.so
run 4 us
# ----------------------------------------------------------------
# UVM-1.1d
# (C) 2007-2013 Mentor Graphics Corporation
# (C) 2007-2013 Cadence Design Systems, Inc.
# (C) 2006-2013 Synopsys, Inc.
# (C) 2011-2013 Cypress Semiconductor Corp.
# ----------------------------------------------------------------
# 
#   ***********       IMPORTANT RELEASE NOTES         ************
# 
#   You are using a version of the UVM library that has been compiled
#   with `UVM_NO_DEPRECATED undefined.
#   See http://www.eda.org/svdb/view.php?id=3313 for more details.
# 
#   You are using a version of the UVM library that has been compiled
#   with `UVM_OBJECT_MUST_HAVE_CONSTRUCTOR undefined.
#   See http://www.eda.org/svdb/view.php?id=3770 for more details.
# 
#       (Specify +UVM_NO_RELNOTES to turn off this notice)
# 
# UVM_INFO verilog_src/questa_uvm_pkg-1.2/src/questa_uvm_pkg.sv(215) @ 0: reporter [Questa UVM] QUESTA_UVM-1.2.3
# UVM_INFO verilog_src/questa_uvm_pkg-1.2/src/questa_uvm_pkg.sv(216) @ 0: reporter [Questa UVM]  questa_uvm::init(+struct)
# UVM_INFO @ 0: reporter [RNTST] Running test simple_test...
# adder: input A =        586, input B =       3063, output OUT =       3649
# adder: input A = 00000000000000000000001001001010, input B = 00000000000000000000101111110111, output OUT = 00000000000000000000111001000001
# refmod: input A =         586, input B =        3063, output OUT =        3649
# refmod: input A = 00000000000000000000001001001010, input B = 00000000000000000000101111110111, output OUT = 00000000000000000000111001000001
# UVM_INFO @ 45: uvm_test_top.env_h.comp [Comparator Match] 
# adder: input A =        552, input B =       3327, output OUT =       3879
# adder: input A = 00000000000000000000001000101000, input B = 00000000000000000000110011111111, output OUT = 00000000000000000000111100100111
# refmod: input A =         552, input B =        3327, output OUT =        3879
# refmod: input A = 00000000000000000000001000101000, input B = 00000000000000000000110011111111, output OUT = 00000000000000000000111100100111
# UVM_INFO @ 75: uvm_test_top.env_h.comp [Comparator Match] 
# adder: input A =        539, input B =       4152, output OUT =       4691
# adder: input A = 00000000000000000000001000011011, input B = 00000000000000000001000000111000, output OUT = 00000000000000000001001001010011
# refmod: input A =         539, input B =        4152, output OUT =        4691
# refmod: input A = 00000000000000000000001000011011, input B = 00000000000000000001000000111000, output OUT = 00000000000000000001001001010011
# UVM_INFO @ 105: uvm_test_top.env_h.comp [Comparator Match] 
# adder: input A =        488, input B =       3967, output OUT =       4455
# adder: input A = 00000000000000000000000111101000, input B = 00000000000000000000111101111111, output OUT = 00000000000000000001000101100111
# refmod: input A =         488, input B =        3967, output OUT =        4455
# refmod: input A = 00000000000000000000000111101000, input B = 00000000000000000000111101111111, output OUT = 00000000000000000001000101100111
# UVM_INFO @ 135: uvm_test_top.env_h.comp [Comparator Match] 
# adder: input A =        712, input B =       3126, output OUT =       3838
# adder: input A = 00000000000000000000001011001000, input B = 00000000000000000000110000110110, output OUT = 00000000000000000000111011111110
# refmod: input A =         712, input B =        3126, output OUT =        3838
# refmod: input A = 00000000000000000000001011001000, input B = 00000000000000000000110000110110, output OUT = 00000000000000000000111011111110
# UVM_INFO @ 165: uvm_test_top.env_h.comp [Comparator Match] 
# adder: input A =        175, input B =        769, output OUT =        944
# adder: input A = 00000000000000000000000010101111, input B = 00000000000000000000001100000001, output OUT = 00000000000000000000001110110000
# refmod: input A =         175, input B =         769, output OUT =         944
# refmod: input A = 00000000000000000000000010101111, input B = 00000000000000000000001100000001, output OUT = 00000000000000000000001110110000
# UVM_INFO @ 195: uvm_test_top.env_h.comp [Comparator Match] 
# adder: input A =        363, input B =       2002, output OUT =       2365
# adder: input A = 00000000000000000000000101101011, input B = 00000000000000000000011111010010, output OUT = 00000000000000000000100100111101
# refmod: input A =         363, input B =        2002, output OUT =        2365
# refmod: input A = 00000000000000000000000101101011, input B = 00000000000000000000011111010010, output OUT = 00000000000000000000100100111101
# UVM_INFO @ 225: uvm_test_top.env_h.comp [Comparator Match] 
# adder: input A =        162, input B =        289, output OUT =        451
# adder: input A = 00000000000000000000000010100010, input B = 00000000000000000000000100100001, output OUT = 00000000000000000000000111000011
# refmod: input A =         162, input B =         289, output OUT =         451
# refmod: input A = 00000000000000000000000010100010, input B = 00000000000000000000000100100001, output OUT = 00000000000000000000000111000011
# UVM_INFO @ 255: uvm_test_top.env_h.comp [Comparator Match] 
# adder: input A =        248, input B =       2431, output OUT =       2679
# adder: input A = 00000000000000000000000011111000, input B = 00000000000000000000100101111111, output OUT = 00000000000000000000101001110111
# refmod: input A =         248, input B =        2431, output OUT =        2679
# refmod: input A = 00000000000000000000000011111000, input B = 00000000000000000000100101111111, output OUT = 00000000000000000000101001110111
# UVM_INFO @ 285: uvm_test_top.env_h.comp [Comparator Match] 
# adder: input A =        665, input B =       5253, output OUT =       5918
# adder: input A = 00000000000000000000001010011001, input B = 00000000000000000001010010000101, output OUT = 00000000000000000001011100011110
# refmod: input A =         665, input B =        5253, output OUT =        5918
# refmod: input A = 00000000000000000000001010011001, input B = 00000000000000000001010010000101, output OUT = 00000000000000000001011100011110
# UVM_INFO @ 315: uvm_test_top.env_h.comp [Comparator Match] 
# adder: input A =        918, input B =       8575, output OUT =       9493
# adder: input A = 00000000000000000000001110010110, input B = 00000000000000000010000101111111, output OUT = 00000000000000000010010100010101
# refmod: input A =         918, input B =        8575, output OUT =        9493
# refmod: input A = 00000000000000000000001110010110, input B = 00000000000000000010000101111111, output OUT = 00000000000000000010010100010101
# UVM_INFO @ 345: uvm_test_top.env_h.comp [Comparator Match] 
# adder: input A =        111, input B =        378, output OUT =        489
# adder: input A = 00000000000000000000000001101111, input B = 00000000000000000000000101111010, output OUT = 00000000000000000000000111101001
# refmod: input A =         111, input B =         378, output OUT =         489
# refmod: input A = 00000000000000000000000001101111, input B = 00000000000000000000000101111010, output OUT = 00000000000000000000000111101001
# UVM_INFO @ 375: uvm_test_top.env_h.comp [Comparator Match] 
# adder: input A =        890, input B =       4298, output OUT =       5188
# adder: input A = 00000000000000000000001101111010, input B = 00000000000000000001000011001010, output OUT = 00000000000000000001010001000100
# refmod: input A =         890, input B =        4298, output OUT =        5188
# refmod: input A = 00000000000000000000001101111010, input B = 00000000000000000001000011001010, output OUT = 00000000000000000001010001000100
# UVM_INFO @ 405: uvm_test_top.env_h.comp [Comparator Match] 
# adder: input A =        971, input B =       5208, output OUT =       6179
# adder: input A = 00000000000000000000001111001011, input B = 00000000000000000001010001011000, output OUT = 00000000000000000001100000100011
# refmod: input A =         971, input B =        5208, output OUT =        6179
# refmod: input A = 00000000000000000000001111001011, input B = 00000000000000000001010001011000, output OUT = 00000000000000000001100000100011
# UVM_INFO @ 435: uvm_test_top.env_h.comp [Comparator Match] 
# adder: input A =        396, input B =        874, output OUT =       1270
# adder: input A = 00000000000000000000000110001100, input B = 00000000000000000000001101101010, output OUT = 00000000000000000000010011110110
# refmod: input A =         396, input B =         874, output OUT =        1270
# refmod: input A = 00000000000000000000000110001100, input B = 00000000000000000000001101101010, output OUT = 00000000000000000000010011110110
# UVM_INFO @ 465: uvm_test_top.env_h.comp [Comparator Match] 
# adder: input A =        170, input B =       1441, output OUT =       1611
# adder: input A = 00000000000000000000000010101010, input B = 00000000000000000000010110100001, output OUT = 00000000000000000000011001001011
# refmod: input A =         170, input B =        1441, output OUT =        1611
# refmod: input A = 00000000000000000000000010101010, input B = 00000000000000000000010110100001, output OUT = 00000000000000000000011001001011
# UVM_INFO @ 495: uvm_test_top.env_h.comp [Comparator Match] 
# adder: input A =        871, input B =       6239, output OUT =       7110
# adder: input A = 00000000000000000000001101100111, input B = 00000000000000000001100001011111, output OUT = 00000000000000000001101111000110
# refmod: input A =         871, input B =        6239, output OUT =        7110
# refmod: input A = 00000000000000000000001101100111, input B = 00000000000000000001100001011111, output OUT = 00000000000000000001101111000110
# UVM_INFO @ 525: uvm_test_top.env_h.comp [Comparator Match] 
# adder: input A =        456, input B =        366, output OUT =        822
# adder: input A = 00000000000000000000000111001000, input B = 00000000000000000000000101101110, output OUT = 00000000000000000000001100110110
# refmod: input A =         456, input B =         366, output OUT =         822
# refmod: input A = 00000000000000000000000111001000, input B = 00000000000000000000000101101110, output OUT = 00000000000000000000001100110110
# UVM_INFO @ 555: uvm_test_top.env_h.comp [Comparator Match] 
# adder: input A =        887, input B =       4984, output OUT =       5871
# adder: input A = 00000000000000000000001101110111, input B = 00000000000000000001001101111000, output OUT = 00000000000000000001011011101111
# refmod: input A =         887, input B =        4984, output OUT =        5871
# refmod: input A = 00000000000000000000001101110111, input B = 00000000000000000001001101111000, output OUT = 00000000000000000001011011101111
# UVM_INFO @ 585: uvm_test_top.env_h.comp [Comparator Match] 
# adder: input A =        999, input B =       9714, output OUT =      10713
# adder: input A = 00000000000000000000001111100111, input B = 00000000000000000010010111110010, output OUT = 00000000000000000010100111011001
# refmod: input A =         999, input B =        9714, output OUT =       10713
# refmod: input A = 00000000000000000000001111100111, input B = 00000000000000000010010111110010, output OUT = 00000000000000000010100111011001
# UVM_INFO @ 615: uvm_test_top.env_h.comp [Comparator Match] 
# adder: input A =        493, input B =        310, output OUT =        803
# adder: input A = 00000000000000000000000111101101, input B = 00000000000000000000000100110110, output OUT = 00000000000000000000001100100011
# refmod: input A =         493, input B =         310, output OUT =         803
# refmod: input A = 00000000000000000000000111101101, input B = 00000000000000000000000100110110, output OUT = 00000000000000000000001100100011
# UVM_INFO @ 645: uvm_test_top.env_h.comp [Comparator Match] 
# adder: input A =        997, input B =       9037, output OUT =      10034
# adder: input A = 00000000000000000000001111100101, input B = 00000000000000000010001101001101, output OUT = 00000000000000000010011100110010
# refmod: input A =         997, input B =        9037, output OUT =       10034
# refmod: input A = 00000000000000000000001111100101, input B = 00000000000000000010001101001101, output OUT = 00000000000000000010011100110010
# UVM_INFO @ 675: uvm_test_top.env_h.comp [Comparator Match] 
# adder: input A =        106, input B =        844, output OUT =        950
# adder: input A = 00000000000000000000000001101010, input B = 00000000000000000000001101001100, output OUT = 00000000000000000000001110110110
# refmod: input A =         106, input B =         844, output OUT =         950
# refmod: input A = 00000000000000000000000001101010, input B = 00000000000000000000001101001100, output OUT = 00000000000000000000001110110110
# UVM_INFO @ 705: uvm_test_top.env_h.comp [Comparator Match] 
# adder: input A =        954, input B =       2418, output OUT =       3372
# adder: input A = 00000000000000000000001110111010, input B = 00000000000000000000100101110010, output OUT = 00000000000000000000110100101100
# refmod: input A =         954, input B =        2418, output OUT =        3372
# refmod: input A = 00000000000000000000001110111010, input B = 00000000000000000000100101110010, output OUT = 00000000000000000000110100101100
# UVM_INFO @ 735: uvm_test_top.env_h.comp [Comparator Match] 
# adder: input A =        652, input B =       2310, output OUT =       2962
# adder: input A = 00000000000000000000001010001100, input B = 00000000000000000000100100000110, output OUT = 00000000000000000000101110010010
# refmod: input A =         652, input B =        2310, output OUT =        2962
# refmod: input A = 00000000000000000000001010001100, input B = 00000000000000000000100100000110, output OUT = 00000000000000000000101110010010
# UVM_INFO @ 765: uvm_test_top.env_h.comp [Comparator Match] 
# adder: input A =        373, input B =        558, output OUT =        931
# adder: input A = 00000000000000000000000101110101, input B = 00000000000000000000001000101110, output OUT = 00000000000000000000001110100011
# refmod: input A =         373, input B =         558, output OUT =         931
# refmod: input A = 00000000000000000000000101110101, input B = 00000000000000000000001000101110, output OUT = 00000000000000000000001110100011
# UVM_INFO @ 795: uvm_test_top.env_h.comp [Comparator Match] 
# adder: input A =        881, input B =       3731, output OUT =       4612
# adder: input A = 00000000000000000000001101110001, input B = 00000000000000000000111010010011, output OUT = 00000000000000000001001000000100
# refmod: input A =         881, input B =        3731, output OUT =        4612
# refmod: input A = 00000000000000000000001101110001, input B = 00000000000000000000111010010011, output OUT = 00000000000000000001001000000100
# UVM_INFO @ 825: uvm_test_top.env_h.comp [Comparator Match] 
# adder: input A =        181, input B =        393, output OUT =        574
# adder: input A = 00000000000000000000000010110101, input B = 00000000000000000000000110001001, output OUT = 00000000000000000000001000111110
# refmod: input A =         181, input B =         393, output OUT =         574
# refmod: input A = 00000000000000000000000010110101, input B = 00000000000000000000000110001001, output OUT = 00000000000000000000001000111110
# UVM_INFO @ 855: uvm_test_top.env_h.comp [Comparator Match] 
# adder: input A =        615, input B =       3900, output OUT =       4515
# adder: input A = 00000000000000000000001001100111, input B = 00000000000000000000111100111100, output OUT = 00000000000000000001000110100011
# refmod: input A =         615, input B =        3900, output OUT =        4515
# refmod: input A = 00000000000000000000001001100111, input B = 00000000000000000000111100111100, output OUT = 00000000000000000001000110100011
# UVM_INFO @ 885: uvm_test_top.env_h.comp [Comparator Match] 
# adder: input A =        768, input B =       2838, output OUT =       3606
# adder: input A = 00000000000000000000001100000000, input B = 00000000000000000000101100010110, output OUT = 00000000000000000000111000010110
# refmod: input A =         768, input B =        2838, output OUT =        3606
# refmod: input A = 00000000000000000000001100000000, input B = 00000000000000000000101100010110, output OUT = 00000000000000000000111000010110
# UVM_INFO @ 915: uvm_test_top.env_h.comp [Comparator Match] 
# adder: input A =        984, input B =       9839, output OUT =      10823
# adder: input A = 00000000000000000000001111011000, input B = 00000000000000000010011001101111, output OUT = 00000000000000000010101001000111
# refmod: input A =         984, input B =        9839, output OUT =       10823
# refmod: input A = 00000000000000000000001111011000, input B = 00000000000000000010011001101111, output OUT = 00000000000000000010101001000111
# UVM_INFO @ 945: uvm_test_top.env_h.comp [Comparator Match] 
# adder: input A =        949, input B =       6339, output OUT =       7288
# adder: input A = 00000000000000000000001110110101, input B = 00000000000000000001100011000011, output OUT = 00000000000000000001110001111000
# refmod: input A =         949, input B =        6339, output OUT =        7288
# refmod: input A = 00000000000000000000001110110101, input B = 00000000000000000001100011000011, output OUT = 00000000000000000001110001111000
# UVM_INFO @ 975: uvm_test_top.env_h.comp [Comparator Match] 
# adder: input A =        727, input B =       5741, output OUT =       6468
# adder: input A = 00000000000000000000001011010111, input B = 00000000000000000001011001101101, output OUT = 00000000000000000001100101000100
# refmod: input A =         727, input B =        5741, output OUT =        6468
# refmod: input A = 00000000000000000000001011010111, input B = 00000000000000000001011001101101, output OUT = 00000000000000000001100101000100
# UVM_INFO @ 1005: uvm_test_top.env_h.comp [Comparator Match] 
# adder: input A =        328, input B =       2872, output OUT =       3200
# adder: input A = 00000000000000000000000101001000, input B = 00000000000000000000101100111000, output OUT = 00000000000000000000110010000000
# refmod: input A =         328, input B =        2872, output OUT =        3200
# refmod: input A = 00000000000000000000000101001000, input B = 00000000000000000000101100111000, output OUT = 00000000000000000000110010000000
# UVM_INFO @ 1035: uvm_test_top.env_h.comp [Comparator Match] 
# adder: input A =        979, input B =       2341, output OUT =       3320
# adder: input A = 00000000000000000000001111010011, input B = 00000000000000000000100100100101, output OUT = 00000000000000000000110011111000
# refmod: input A =         979, input B =        2341, output OUT =        3320
# refmod: input A = 00000000000000000000001111010011, input B = 00000000000000000000100100100101, output OUT = 00000000000000000000110011111000
# UVM_INFO @ 1065: uvm_test_top.env_h.comp [Comparator Match] 
# adder: input A =        804, input B =       7659, output OUT =       8463
# adder: input A = 00000000000000000000001100100100, input B = 00000000000000000001110111101011, output OUT = 00000000000000000010000100001111
# refmod: input A =         804, input B =        7659, output OUT =        8463
# refmod: input A = 00000000000000000000001100100100, input B = 00000000000000000001110111101011, output OUT = 00000000000000000010000100001111
# UVM_INFO @ 1095: uvm_test_top.env_h.comp [Comparator Match] 
# adder: input A =        257, input B =       1675, output OUT =       1932
# adder: input A = 00000000000000000000000100000001, input B = 00000000000000000000011010001011, output OUT = 00000000000000000000011110001100
# refmod: input A =         257, input B =        1675, output OUT =        1932
# refmod: input A = 00000000000000000000000100000001, input B = 00000000000000000000011010001011, output OUT = 00000000000000000000011110001100
# UVM_INFO @ 1125: uvm_test_top.env_h.comp [Comparator Match] 
# adder: input A =        673, input B =        437, output OUT =       1110
# adder: input A = 00000000000000000000001010100001, input B = 00000000000000000000000110110101, output OUT = 00000000000000000000010001010110
# refmod: input A =         673, input B =         437, output OUT =        1110
# refmod: input A = 00000000000000000000001010100001, input B = 00000000000000000000000110110101, output OUT = 00000000000000000000010001010110
# UVM_INFO @ 1155: uvm_test_top.env_h.comp [Comparator Match] 
# adder: input A =        946, input B =       8998, output OUT =       9944
# adder: input A = 00000000000000000000001110110010, input B = 00000000000000000010001100100110, output OUT = 00000000000000000010011011011000
# refmod: input A =         946, input B =        8998, output OUT =        9944
# refmod: input A = 00000000000000000000001110110010, input B = 00000000000000000010001100100110, output OUT = 00000000000000000010011011011000
# UVM_INFO @ 1185: uvm_test_top.env_h.comp [Comparator Match] 
# adder: input A =        841, input B =        102, output OUT =        943
# adder: input A = 00000000000000000000001101001001, input B = 00000000000000000000000001100110, output OUT = 00000000000000000000001110101111
# refmod: input A =         841, input B =         102, output OUT =         943
# refmod: input A = 00000000000000000000001101001001, input B = 00000000000000000000000001100110, output OUT = 00000000000000000000001110101111
# UVM_INFO @ 1215: uvm_test_top.env_h.comp [Comparator Match] 
# adder: input A =        606, input B =        821, output OUT =       1427
# adder: input A = 00000000000000000000001001011110, input B = 00000000000000000000001100110101, output OUT = 00000000000000000000010110010011
# refmod: input A =         606, input B =         821, output OUT =        1427
# refmod: input A = 00000000000000000000001001011110, input B = 00000000000000000000001100110101, output OUT = 00000000000000000000010110010011
# UVM_INFO @ 1245: uvm_test_top.env_h.comp [Comparator Match] 
# adder: input A =        982, input B =       9014, output OUT =       9996
# adder: input A = 00000000000000000000001111010110, input B = 00000000000000000010001100110110, output OUT = 00000000000000000010011100001100
# refmod: input A =         982, input B =        9014, output OUT =        9996
# refmod: input A = 00000000000000000000001111010110, input B = 00000000000000000010001100110110, output OUT = 00000000000000000010011100001100
# UVM_INFO @ 1275: uvm_test_top.env_h.comp [Comparator Match] 
# adder: input A =        144, input B =       1061, output OUT =       1205
# adder: input A = 00000000000000000000000010010000, input B = 00000000000000000000010000100101, output OUT = 00000000000000000000010010110101
# refmod: input A =         144, input B =        1061, output OUT =        1205
# refmod: input A = 00000000000000000000000010010000, input B = 00000000000000000000010000100101, output OUT = 00000000000000000000010010110101
# UVM_INFO @ 1305: uvm_test_top.env_h.comp [Comparator Match] 
# adder: input A =        874, input B =       5336, output OUT =       6210
# adder: input A = 00000000000000000000001101101010, input B = 00000000000000000001010011011000, output OUT = 00000000000000000001100001000010
# refmod: input A =         874, input B =        5336, output OUT =        6210
# refmod: input A = 00000000000000000000001101101010, input B = 00000000000000000001010011011000, output OUT = 00000000000000000001100001000010
# UVM_INFO @ 1335: uvm_test_top.env_h.comp [Comparator Match] 
# adder: input A =        341, input B =        840, output OUT =       1181
# adder: input A = 00000000000000000000000101010101, input B = 00000000000000000000001101001000, output OUT = 00000000000000000000010010011101
# refmod: input A =         341, input B =         840, output OUT =        1181
# refmod: input A = 00000000000000000000000101010101, input B = 00000000000000000000001101001000, output OUT = 00000000000000000000010010011101
# UVM_INFO @ 1365: uvm_test_top.env_h.comp [Comparator Match] 
# adder: input A =        978, input B =       5828, output OUT =       6806
# adder: input A = 00000000000000000000001111010010, input B = 00000000000000000001011011000100, output OUT = 00000000000000000001101010010110
# refmod: input A =         978, input B =        5828, output OUT =        6806
# refmod: input A = 00000000000000000000001111010010, input B = 00000000000000000001011011000100, output OUT = 00000000000000000001101010010110
# UVM_INFO @ 1395: uvm_test_top.env_h.comp [Comparator Match] 
# adder: input A =        785, input B =       5484, output OUT =       6269
# adder: input A = 00000000000000000000001100010001, input B = 00000000000000000001010101101100, output OUT = 00000000000000000001100001111101
# refmod: input A =         785, input B =        5484, output OUT =        6269
# refmod: input A = 00000000000000000000001100010001, input B = 00000000000000000001010101101100, output OUT = 00000000000000000001100001111101
# UVM_INFO @ 1425: uvm_test_top.env_h.comp [Comparator Match] 
# adder: input A =        785, input B =       5386, output OUT =       6171
# adder: input A = 00000000000000000000001100010001, input B = 00000000000000000001010100001010, output OUT = 00000000000000000001100000011011
# refmod: input A =         785, input B =        5386, output OUT =        6171
# refmod: input A = 00000000000000000000001100010001, input B = 00000000000000000001010100001010, output OUT = 00000000000000000001100000011011
# UVM_INFO @ 1455: uvm_test_top.env_h.comp [Comparator Match] 
# adder: input A =        963, input B =       3954, output OUT =       4917
# adder: input A = 00000000000000000000001111000011, input B = 00000000000000000000111101110010, output OUT = 00000000000000000001001100110101
# refmod: input A =         963, input B =        3954, output OUT =        4917
# refmod: input A = 00000000000000000000001111000011, input B = 00000000000000000000111101110010, output OUT = 00000000000000000001001100110101
# UVM_INFO @ 1485: uvm_test_top.env_h.comp [Comparator Match] 
# adder: input A =        773, input B =       1394, output OUT =       2167
# adder: input A = 00000000000000000000001100000101, input B = 00000000000000000000010101110010, output OUT = 00000000000000000000100001110111
# refmod: input A =         773, input B =        1394, output OUT =        2167
# refmod: input A = 00000000000000000000001100000101, input B = 00000000000000000000010101110010, output OUT = 00000000000000000000100001110111
# UVM_INFO @ 1515: uvm_test_top.env_h.comp [Comparator Match] 
# adder: input A =        269, input B =       2562, output OUT =       2831
# adder: input A = 00000000000000000000000100001101, input B = 00000000000000000000101000000010, output OUT = 00000000000000000000101100001111
# refmod: input A =         269, input B =        2562, output OUT =        2831
# refmod: input A = 00000000000000000000000100001101, input B = 00000000000000000000101000000010, output OUT = 00000000000000000000101100001111
# UVM_INFO @ 1545: uvm_test_top.env_h.comp [Comparator Match] 
# adder: input A =        457, input B =       1108, output OUT =       1565
# adder: input A = 00000000000000000000000111001001, input B = 00000000000000000000010001010100, output OUT = 00000000000000000000011000011101
# refmod: input A =         457, input B =        1108, output OUT =        1565
# refmod: input A = 00000000000000000000000111001001, input B = 00000000000000000000010001010100, output OUT = 00000000000000000000011000011101
# UVM_INFO @ 1575: uvm_test_top.env_h.comp [Comparator Match] 
# adder: input A =        647, input B =       6203, output OUT =       6850
# adder: input A = 00000000000000000000001010000111, input B = 00000000000000000001100000111011, output OUT = 00000000000000000001101011000010
# refmod: input A =         647, input B =        6203, output OUT =        6850
# refmod: input A = 00000000000000000000001010000111, input B = 00000000000000000001100000111011, output OUT = 00000000000000000001101011000010
# UVM_INFO @ 1605: uvm_test_top.env_h.comp [Comparator Match] 
# adder: input A =        887, input B =       8317, output OUT =       9204
# adder: input A = 00000000000000000000001101110111, input B = 00000000000000000010000001111101, output OUT = 00000000000000000010001111110100
# refmod: input A =         887, input B =        8317, output OUT =        9204
# refmod: input A = 00000000000000000000001101110111, input B = 00000000000000000010000001111101, output OUT = 00000000000000000010001111110100
# UVM_INFO @ 1635: uvm_test_top.env_h.comp [Comparator Match] 
# adder: input A =        397, input B =        886, output OUT =       1283
# adder: input A = 00000000000000000000000110001101, input B = 00000000000000000000001101110110, output OUT = 00000000000000000000010100000011
# refmod: input A =         397, input B =         886, output OUT =        1283
# refmod: input A = 00000000000000000000000110001101, input B = 00000000000000000000001101110110, output OUT = 00000000000000000000010100000011
# UVM_INFO @ 1665: uvm_test_top.env_h.comp [Comparator Match] 
# adder: input A =        231, input B =        530, output OUT =        761
# adder: input A = 00000000000000000000000011100111, input B = 00000000000000000000001000010010, output OUT = 00000000000000000000001011111001
# refmod: input A =         231, input B =         530, output OUT =         761
# refmod: input A = 00000000000000000000000011100111, input B = 00000000000000000000001000010010, output OUT = 00000000000000000000001011111001
# UVM_INFO @ 1695: uvm_test_top.env_h.comp [Comparator Match] 
# adder: input A =        878, input B =       2125, output OUT =       3003
# adder: input A = 00000000000000000000001101101110, input B = 00000000000000000000100001001101, output OUT = 00000000000000000000101110111011
# refmod: input A =         878, input B =        2125, output OUT =        3003
# refmod: input A = 00000000000000000000001101101110, input B = 00000000000000000000100001001101, output OUT = 00000000000000000000101110111011
# UVM_INFO @ 1725: uvm_test_top.env_h.comp [Comparator Match] 
# adder: input A =        416, input B =       1866, output OUT =       2282
# adder: input A = 00000000000000000000000110100000, input B = 00000000000000000000011101001010, output OUT = 00000000000000000000100011101010
# refmod: input A =         416, input B =        1866, output OUT =        2282
# refmod: input A = 00000000000000000000000110100000, input B = 00000000000000000000011101001010, output OUT = 00000000000000000000100011101010
# UVM_INFO @ 1755: uvm_test_top.env_h.comp [Comparator Match] 
# adder: input A =        111, input B =        217, output OUT =        328
# adder: input A = 00000000000000000000000001101111, input B = 00000000000000000000000011011001, output OUT = 00000000000000000000000101001000
# refmod: input A =         111, input B =         217, output OUT =         328
# refmod: input A = 00000000000000000000000001101111, input B = 00000000000000000000000011011001, output OUT = 00000000000000000000000101001000
# UVM_INFO @ 1785: uvm_test_top.env_h.comp [Comparator Match] 
# adder: input A =        849, input B =       5772, output OUT =       6621
# adder: input A = 00000000000000000000001101010001, input B = 00000000000000000001011010001100, output OUT = 00000000000000000001100111011101
# refmod: input A =         849, input B =        5772, output OUT =        6621
# refmod: input A = 00000000000000000000001101010001, input B = 00000000000000000001011010001100, output OUT = 00000000000000000001100111011101
# UVM_INFO @ 1815: uvm_test_top.env_h.comp [Comparator Match] 
# adder: input A =        773, input B =       4288, output OUT =       5061
# adder: input A = 00000000000000000000001100000101, input B = 00000000000000000001000011000000, output OUT = 00000000000000000001001111000101
# refmod: input A =         773, input B =        4288, output OUT =        5061
# refmod: input A = 00000000000000000000001100000101, input B = 00000000000000000001000011000000, output OUT = 00000000000000000001001111000101
# UVM_INFO @ 1845: uvm_test_top.env_h.comp [Comparator Match] 
# adder: input A =        134, input B =       1333, output OUT =       1467
# adder: input A = 00000000000000000000000010000110, input B = 00000000000000000000010100110101, output OUT = 00000000000000000000010110111011
# refmod: input A =         134, input B =        1333, output OUT =        1467
# refmod: input A = 00000000000000000000000010000110, input B = 00000000000000000000010100110101, output OUT = 00000000000000000000010110111011
# UVM_INFO @ 1875: uvm_test_top.env_h.comp [Comparator Match] 
# adder: input A =        164, input B =       1246, output OUT =       1410
# adder: input A = 00000000000000000000000010100100, input B = 00000000000000000000010011011110, output OUT = 00000000000000000000010110000010
# refmod: input A =         164, input B =        1246, output OUT =        1410
# refmod: input A = 00000000000000000000000010100100, input B = 00000000000000000000010011011110, output OUT = 00000000000000000000010110000010
# UVM_INFO @ 1905: uvm_test_top.env_h.comp [Comparator Match] 
# adder: input A =        124, input B =        358, output OUT =        482
# adder: input A = 00000000000000000000000001111100, input B = 00000000000000000000000101100110, output OUT = 00000000000000000000000111100010
# refmod: input A =         124, input B =         358, output OUT =         482
# refmod: input A = 00000000000000000000000001111100, input B = 00000000000000000000000101100110, output OUT = 00000000000000000000000111100010
# UVM_INFO @ 1935: uvm_test_top.env_h.comp [Comparator Match] 
# adder: input A =        880, input B =       3713, output OUT =       4593
# adder: input A = 00000000000000000000001101110000, input B = 00000000000000000000111010000001, output OUT = 00000000000000000001000111110001
# refmod: input A =         880, input B =        3713, output OUT =        4593
# refmod: input A = 00000000000000000000001101110000, input B = 00000000000000000000111010000001, output OUT = 00000000000000000001000111110001
# UVM_INFO @ 1965: uvm_test_top.env_h.comp [Comparator Match] 
# adder: input A =        388, input B =       1837, output OUT =       2225
# adder: input A = 00000000000000000000000110000100, input B = 00000000000000000000011100101101, output OUT = 00000000000000000000100010110001
# refmod: input A =         388, input B =        1837, output OUT =        2225
# refmod: input A = 00000000000000000000000110000100, input B = 00000000000000000000011100101101, output OUT = 00000000000000000000100010110001
# UVM_INFO @ 1995: uvm_test_top.env_h.comp [Comparator Match] 
# adder: input A =        378, input B =       2619, output OUT =       2997
# adder: input A = 00000000000000000000000101111010, input B = 00000000000000000000101000111011, output OUT = 00000000000000000000101110110101
# refmod: input A =         378, input B =        2619, output OUT =        2997
# refmod: input A = 00000000000000000000000101111010, input B = 00000000000000000000101000111011, output OUT = 00000000000000000000101110110101
# UVM_INFO @ 2025: uvm_test_top.env_h.comp [Comparator Match] 
# adder: input A =        929, input B =       4694, output OUT =       5623
# adder: input A = 00000000000000000000001110100001, input B = 00000000000000000001001001010110, output OUT = 00000000000000000001010111110111
# refmod: input A =         929, input B =        4694, output OUT =        5623
# refmod: input A = 00000000000000000000001110100001, input B = 00000000000000000001001001010110, output OUT = 00000000000000000001010111110111
# UVM_INFO @ 2055: uvm_test_top.env_h.comp [Comparator Match] 
# adder: input A =        725, input B =       4201, output OUT =       4926
# adder: input A = 00000000000000000000001011010101, input B = 00000000000000000001000001101001, output OUT = 00000000000000000001001100111110
# refmod: input A =         725, input B =        4201, output OUT =        4926
